Bank Deposit Predictions Using Logistic Regression
…
model.data %>% 
  filter(abs(.std.resid) > 3)

## # A tibble: 34 x 16
##    .rownames y     poutcome duration cons.price.idx emp.var.rate contact euribor3m .fitted .se.fit .resid    .hat
##    <chr>     <fct> <fct>       <int>          <dbl>        <dbl> <fct>       <dbl>   <dbl>   <dbl>  <dbl>   <dbl>
##  1 21331     yes   nonexis~      194           93.4          1.4 cellul~     4.96    -4.61  0.0652   3.04 4.16e-5
##  2 36511     no    failure      2219           93.0         -2.9 cellul~     1.26     7.98  0.174   -4.00 1.04e-5
##  3 24044     no    nonexis~     3284           93.8         -0.1 teleph~     4.91    11.0   0.244   -4.68 1.02e-6
##  4 24103     yes   failure       114           93.2         -0.1 teleph~     4.29    -4.74  0.0950   3.08 7.74e-5
##  5 33453     no    nonexis~     1925           92.9         -1.8 cellul~     1.29     5.49  0.130   -3.31 6.96e-5
##  6 4214      no    nonexis~     3078           94.0          1.1 teleph~     4.86     8.68  0.208   -4.17 7.35e-6
##  7 38842     no    success      1011           92.6         -3.4 cellul~     0.714    4.69  0.108   -3.06 1.06e-4
##  8 28011     no    nonexis~     2870           93.1         -1.8 cellul~     1.48    10.0   0.203   -4.48 1.78e-6
##  9 31609     no    nonexis~     1957           92.9         -1.8 cellul~     1.33     5.64  0.132   -3.36 6.17e-5
## 10 32485     no    nonexis~     1954           92.9         -1.8 cellul~     1.31     5.62  0.132   -3.35 6.27e-5
## # ... with 24 more rows, and 4 more variables: .sigma <dbl>, .cooksd <dbl>, .std.resid <dbl>, index <int>
…
